Data Wrangling and Visualisation in R
…
---

class: split-40
count: false
.column[.content[

```r
*spotify
```
]]
.column[.content[

```
# A tibble: 32,833 x 23
   track_id track_name track_artist track_popularity track_album_id
   <chr>    <chr>      <chr>                   <dbl> <chr>         
 1 6f807x0~ I Don't C~ Ed Sheeran                 66 2oCs0DGTsRO98~
 2 0r7CVbZ~ Memories ~ Maroon 5                   67 63rPSO264uRjW~
 3 1z1Hg7V~ All the T~ Zara Larsson               70 1HoSmj2eLcsrR~
 4 75Fpbth~ Call You ~ The Chainsm~               60 1nqYsOef1yKKu~
 5 1e8PAfc~ Someone Y~ Lewis Capal~               69 7m7vv9wlQ4i0L~
 6 7fvUMiy~ Beautiful~ Ed Sheeran                 67 2yiy9cd2QktrN~
 7 2OAylPU~ Never Rea~ Katy Perry                 62 7INHYSeusaFly~
 8 6b1RNvA~ Post Malo~ Sam Feldt                  69 6703SRPsLkS4b~
 9 7bF6tCO~ Tough Lov~ Avicii                     68 7CvAfGvq4RlIw~
10 1IXGILk~ If I Can'~ Shawn Mendes               67 4QxzbfSsVryEQ~
# ... with 32,823 more rows, and 18 more variables:
#   track_album_name <chr>, track_album_release_date <chr>,
#   playlist_name <chr>, playlist_id <chr>, playlist_genre <chr>,
#   playlist_subgenre <chr>, danceability <dbl>, energy <dbl>, key <dbl>,
#   loudness <dbl>, mode <dbl>, speechiness <dbl>, acousticness <dbl>,
#   instrumentalness <dbl>, liveness <dbl>, valence <dbl>, tempo <dbl>,
#   duration_ms <dbl>
```
]]
---
class: split-40
count: false
.column[.content[

```r
spotify %>%  
* select(track_artist, duration_ms)
```
]]
.column[.content[

```
# A tibble: 32,833 x 2
   track_artist     duration_ms
   <chr>                  <dbl>
 1 Ed Sheeran            194754
 2 Maroon 5              162600
 3 Zara Larsson          176616
 4 The Chainsmokers      169093
 5 Lewis Capaldi         189052
 6 Ed Sheeran            163049
 7 Katy Perry            187675
 8 Sam Feldt             207619
 9 Avicii                193187
10 Shawn Mendes          253040
# ... with 32,823 more rows
```
…
```r
spotify %>%  
  select(track_artist, duration_ms) %>%  
* mutate(duration_s = duration_ms / 1000)
```
]]
.column[.content[

```
# A tibble: 32,833 x 3
   track_artist     duration_ms duration_s
   <chr>                  <dbl>      <dbl>
 1 Ed Sheeran            194754       195.
 2 Maroon 5              162600       163.
 3 Zara Larsson          176616       177.
 4 The Chainsmokers      169093       169.
 5 Lewis Capaldi         189052       189.
 6 Ed Sheeran            163049       163.
 7 Katy Perry            187675       188.
 8 Sam Feldt             207619       208.
 9 Avicii                193187       193.
10 Shawn Mendes          253040       253.
# ... with 32,823 more rows
```
…
```r
spotify %>%  
  select(track_artist, duration_ms) %>%  
  mutate(duration_s = duration_ms / 1000) %>%  
* filter(duration_s > 180)
```
]]
.column[.content[

```
# A tibble: 26,523 x 3
   track_artist   duration_ms duration_s
   <chr>                <dbl>      <dbl>
 1 Ed Sheeran          194754       195.
 2 Lewis Capaldi       189052       189.
 3 Katy Perry          187675       188.
 4 Sam Feldt           207619       208.
 5 Avicii              193187       193.
 6 Shawn Mendes        253040       253.
 7 Ed Sheeran          207894       208.
 8 Ellie Goulding      203733       204.
 9 Loud Luxury         192507       193.
10 Martin Garrix       255238       255.
# ... with 26,513 more rows
```
…
```r
spotify %>%  
  select(track_artist, duration_ms) %>%  
  mutate(duration_s = duration_ms / 1000) %>%  
  filter(duration_s > 180) %>%  
* group_by(track_artist)
```
]]
.column[.content[

```
# A tibble: 26,523 x 3
# Groups:   track_artist [8,875]
   track_artist   duration_ms duration_s
   <chr>                <dbl>      <dbl>
 1 Ed Sheeran          194754       195.
 2 Lewis Capaldi       189052       189.
 3 Katy Perry          187675       188.
 4 Sam Feldt           207619       208.
 5 Avicii              193187       193.
 6 Shawn Mendes        253040       253.
 7 Ed Sheeran          207894       208.
 8 Ellie Goulding      203733       204.
 9 Loud Luxury         192507       193.
10 Martin Garrix       255238       255.
# ... with 26,513 more rows
```
…
```r
spotify %>%  
  select(track_artist, duration_ms) %>%  
  mutate(duration_s = duration_ms / 1000) %>%  
  filter(duration_s > 180) %>%  
  group_by(track_artist) %>%  
* count()
```
]]
.column[.content[

```
# A tibble: 8,875 x 2
# Groups:   track_artist [8,875]
   track_artist                                         n
   <chr>                                            <int>
 1 'Til Tuesday                                         2
 2 -M-                                                  1
 3 !!!                                                  2
 4 !deladap                                             3
 5 "\"Dear Evan Hansen\" August 2018 Broadway Cast"     1
 6 $uicideBoy$                                          4
 7 (G)I-DLE                                             1
 8 (Sandy) Alex G                                       1
 9 *NSYNC                                               3
10 [:SITD:]                                             4
# ... with 8,865 more rows
```
…
```r
spotify %>%  
  select(track_artist, duration_ms) %>%  
  mutate(duration_s = duration_ms / 1000) %>%  
  filter(duration_s > 180) %>%  
  group_by(track_artist) %>%  
  count() %>%  
* arrange(desc(n))
```
]]
.column[.content[

```
# A tibble: 8,875 x 2
# Groups:   track_artist [8,875]
   track_artist         n
   <chr>            <int>
 1 Martin Garrix      152
 2 The Chainsmokers   111
 3 Queen              102
 4 Don Omar            99
 5 David Guetta        96
 6 Calvin Harris       90
 7 Drake               77
 8 Guns N' Roses       77
 9 Kygo                77
10 The Weeknd          75
# ... with 8,865 more rows
```
…
---

class: split-40
count: false
.column[.content[

```r
*spotify
```
]]
.column[.content[

```
# A tibble: 32,833 x 23
   track_id track_name track_artist track_popularity track_album_id
   <chr>    <chr>      <chr>                   <dbl> <chr>         
 1 6f807x0~ I Don't C~ Ed Sheeran                 66 2oCs0DGTsRO98~
 2 0r7CVbZ~ Memories ~ Maroon 5                   67 63rPSO264uRjW~
 3 1z1Hg7V~ All the T~ Zara Larsson               70 1HoSmj2eLcsrR~
 4 75Fpbth~ Call You ~ The Chainsm~               60 1nqYsOef1yKKu~
 5 1e8PAfc~ Someone Y~ Lewis Capal~               69 7m7vv9wlQ4i0L~
 6 7fvUMiy~ Beautiful~ Ed Sheeran                 67 2yiy9cd2QktrN~
 7 2OAylPU~ Never Rea~ Katy Perry                 62 7INHYSeusaFly~
 8 6b1RNvA~ Post Malo~ Sam Feldt                  69 6703SRPsLkS4b~
 9 7bF6tCO~ Tough Lov~ Avicii                     68 7CvAfGvq4RlIw~
10 1IXGILk~ If I Can'~ Shawn Mendes               67 4QxzbfSsVryEQ~
# ... with 32,823 more rows, and 18 more variables:
#   track_album_name <chr>, track_album_release_date <chr>,
#   playlist_name <chr>, playlist_id <chr>, playlist_genre <chr>,
#   playlist_subgenre <chr>, danceability <dbl>, energy <dbl>, key <dbl>,
#   loudness <dbl>, mode <dbl>, speechiness <dbl>, acousticness <dbl>,
#   instrumentalness <dbl>, liveness <dbl>, valence <dbl>, tempo <dbl>,
#   duration_ms <dbl>
```
…
```r
spotify %>%  
* separate(col = track_album_release_date,
*          into = c("year", "month", "day"),
*          sep = "-")
```
]]
.column[.content[

```
# A tibble: 32,833 x 25
   track_id track_name track_artist track_popularity track_album_id
   <chr>    <chr>      <chr>                   <dbl> <chr>         
 1 6f807x0~ I Don't C~ Ed Sheeran                 66 2oCs0DGTsRO98~
 2 0r7CVbZ~ Memories ~ Maroon 5                   67 63rPSO264uRjW~
 3 1z1Hg7V~ All the T~ Zara Larsson               70 1HoSmj2eLcsrR~
 4 75Fpbth~ Call You ~ The Chainsm~               60 1nqYsOef1yKKu~
 5 1e8PAfc~ Someone Y~ Lewis Capal~               69 7m7vv9wlQ4i0L~
 6 7fvUMiy~ Beautiful~ Ed Sheeran                 67 2yiy9cd2QktrN~
 7 2OAylPU~ Never Rea~ Katy Perry                 62 7INHYSeusaFly~
 8 6b1RNvA~ Post Malo~ Sam Feldt                  69 6703SRPsLkS4b~
 9 7bF6tCO~ Tough Lov~ Avicii                     68 7CvAfGvq4RlIw~
10 1IXGILk~ If I Can'~ Shawn Mendes               67 4QxzbfSsVryEQ~
# ... with 32,823 more rows, and 20 more variables:
#   track_album_name <chr>, year <chr>, month <chr>, day <chr>,
#   playlist_name <chr>, playlist_id <chr>, playlist_genre <chr>,
#   playlist_subgenre <chr>, danceability <dbl>, energy <dbl>, key <dbl>,
#   loudness <dbl>, mode <dbl>, speechiness <dbl>, acousticness <dbl>,
#   instrumentalness <dbl>, liveness <dbl>, valence <dbl>, tempo <dbl>,
#   duration_ms <dbl>
```
…
```r
spotify %>%  
  separate(col = track_album_release_date,  
           into = c("year", "month", "day"),  
           sep = "-") %>%  
* filter(year >= 1980 & !is.na(year))
```
]]
.column[.content[

```
# A tibble: 31,692 x 25
   track_id track_name track_artist track_popularity track_album_id
   <chr>    <chr>      <chr>                   <dbl> <chr>         
 1 6f807x0~ I Don't C~ Ed Sheeran                 66 2oCs0DGTsRO98~
 2 0r7CVbZ~ Memories ~ Maroon 5                   67 63rPSO264uRjW~
 3 1z1Hg7V~ All the T~ Zara Larsson               70 1HoSmj2eLcsrR~
 4 75Fpbth~ Call You ~ The Chainsm~               60 1nqYsOef1yKKu~
 5 1e8PAfc~ Someone Y~ Lewis Capal~               69 7m7vv9wlQ4i0L~
 6 7fvUMiy~ Beautiful~ Ed Sheeran                 67 2yiy9cd2QktrN~
 7 2OAylPU~ Never Rea~ Katy Perry                 62 7INHYSeusaFly~
 8 6b1RNvA~ Post Malo~ Sam Feldt                  69 6703SRPsLkS4b~
 9 7bF6tCO~ Tough Lov~ Avicii                     68 7CvAfGvq4RlIw~
10 1IXGILk~ If I Can'~ Shawn Mendes               67 4QxzbfSsVryEQ~
# ... with 31,682 more rows, and 20 more variables:
#   track_album_name <chr>, year <chr>, month <chr>, day <chr>,
#   playlist_name <chr>, playlist_id <chr>, playlist_genre <chr>,
#   playlist_subgenre <chr>, danceability <dbl>, energy <dbl>, key <dbl>,
#   loudness <dbl>, mode <dbl>, speechiness <dbl>, acousticness <dbl>,
#   instrumentalness <dbl>, liveness <dbl>, valence <dbl>, tempo <dbl>,
#   duration_ms <dbl>
```
…
```r
spotify %>%  
  separate(col = track_album_release_date,  
           into = c("year", "month", "day"),  
           sep = "-") %>%  
  filter(year >= 1980 & !is.na(year)) %>%  
* mutate(duration_min = duration_ms/60000)
```
]]
.column[.content[

```
# A tibble: 31,692 x 26
   track_id track_name track_artist track_popularity track_album_id
   <chr>    <chr>      <chr>                   <dbl> <chr>         
 1 6f807x0~ I Don't C~ Ed Sheeran                 66 2oCs0DGTsRO98~
 2 0r7CVbZ~ Memories ~ Maroon 5                   67 63rPSO264uRjW~
 3 1z1Hg7V~ All the T~ Zara Larsson               70 1HoSmj2eLcsrR~
 4 75Fpbth~ Call You ~ The Chainsm~               60 1nqYsOef1yKKu~
 5 1e8PAfc~ Someone Y~ Lewis Capal~               69 7m7vv9wlQ4i0L~
 6 7fvUMiy~ Beautiful~ Ed Sheeran                 67 2yiy9cd2QktrN~
 7 2OAylPU~ Never Rea~ Katy Perry                 62 7INHYSeusaFly~
 8 6b1RNvA~ Post Malo~ Sam Feldt                  69 6703SRPsLkS4b~
 9 7bF6tCO~ Tough Lov~ Avicii                     68 7CvAfGvq4RlIw~
10 1IXGILk~ If I Can'~ Shawn Mendes               67 4QxzbfSsVryEQ~
# ... with 31,682 more rows, and 21 more variables:
#   track_album_name <chr>, year <chr>, month <chr>, day <chr>,
#   playlist_name <chr>, playlist_id <chr>, playlist_genre <chr>,
#   playlist_subgenre <chr>, danceability <dbl>, energy <dbl>, key <dbl>,
#   loudness <dbl>, mode <dbl>, speechiness <dbl>, acousticness <dbl>,
#   instrumentalness <dbl>, liveness <dbl>, valence <dbl>, tempo <dbl>,
#   duration_ms <dbl>, duration_min <dbl>
```
…
```r
spotify %>%  
  separate(col = track_album_release_date,  
           into = c("year", "month", "day"),  
           sep = "-") %>%  
  filter(year >= 1980 & !is.na(year)) %>%  
  mutate(duration_min = duration_ms/60000) %>%  
* select(year, duration_min, playlist_genre)
```
]]
.column[.content[

```
# A tibble: 31,692 x 3
   year  duration_min playlist_genre
   <chr>        <dbl> <chr>         
 1 2019          3.25 pop           
 2 2019          2.71 pop           
 3 2019          2.94 pop           
 4 2019          2.82 pop           
 5 2019          3.15 pop           
 6 2019          2.72 pop           
 7 2019          3.13 pop           
 8 2019          3.46 pop           
 9 2019          3.22 pop           
10 2019          4.22 pop           
# ... with 31,682 more rows
```
…
