…
```
## See spec(...) for full column specifications.
```

```r
# Inspect data
spotify         # The data object has 32,833 observations (rows) and 23 fields (columns)
```

```
## # A tibble: 32,833 x 23
##    track_id track_name track_artist track_popularity track_album_id
##    <chr>    <chr>      <chr>                   <dbl> <chr>         
##  1 6f807x0~ I Don't C~ Ed Sheeran                 66 2oCs0DGTsRO98~
##  2 0r7CVbZ~ Memories ~ Maroon 5                   67 63rPSO264uRjW~
##  3 1z1Hg7V~ All the T~ Zara Larsson               70 1HoSmj2eLcsrR~
##  4 75Fpbth~ Call You ~ The Chainsm~               60 1nqYsOef1yKKu~
##  5 1e8PAfc~ Someone Y~ Lewis Capal~               69 7m7vv9wlQ4i0L~
##  6 7fvUMiy~ Beautiful~ Ed Sheeran                 67 2yiy9cd2QktrN~
##  7 2OAylPU~ Never Rea~ Katy Perry                 62 7INHYSeusaFly~
##  8 6b1RNvA~ Post Malo~ Sam Feldt                  69 6703SRPsLkS4b~
##  9 7bF6tCO~ Tough Lov~ Avicii                     68 7CvAfGvq4RlIw~
## 10 1IXGILk~ If I Can'~ Shawn Mendes               67 4QxzbfSsVryEQ~
## # ... with 32,823 more rows, and 18 more variables:
## #   track_album_name <chr>, track_album_release_date <chr>,
## #   playlist_name <chr>, playlist_id <chr>, playlist_genre <chr>,
## #   playlist_subgenre <chr>, danceability <dbl>, energy <dbl>, key <dbl>,
## #   loudness <dbl>, mode <dbl>, speechiness <dbl>, acousticness <dbl>,
## #   instrumentalness <dbl>, liveness <dbl>, valence <dbl>, tempo <dbl>,
## #   duration_ms <dbl>
```
…
```r
# 1.1 Selecting columns, filtering rows ----
```

Use the select() function to select specific columns in the dataframe. Start 
with the dataframe object, than the desired, column(s). 


```r
select(spotify, track_name)
```

```
## # A tibble: 32,833 x 1
##    track_name                                           
##    <chr>                                                
##  1 I Don't Care (with Justin Bieber) - Loud Luxury Remix
##  2 Memories - Dillon Francis Remix                      
##  3 All the Time - Don Diablo Remix                      
##  4 Call You Mine - Keanu Silva Remix                    
##  5 Someone You Loved - Future Humans Remix              
##  6 Beautiful People (feat. Khalid) - Jack Wins Remix    
##  7 Never Really Over - R3HAB Remix                      
##  8 Post Malone (feat. RANI) - GATTÜSO Remix             
##  9 Tough Love - Tiësto Remix / Radio Edit               
## 10 If I Can't Have You - Gryffin Remix                  
## # ... with 32,823 more rows
```

```r
select(spotify, track_name, track_artist, playlist_genre)
```

```
## # A tibble: 32,833 x 3
##    track_name                                 track_artist   playlist_genre
##    <chr>                                      <chr>          <chr>         
##  1 I Don't Care (with Justin Bieber) - Loud ~ Ed Sheeran     pop           
##  2 Memories - Dillon Francis Remix            Maroon 5       pop           
##  3 All the Time - Don Diablo Remix            Zara Larsson   pop           
##  4 Call You Mine - Keanu Silva Remix          The Chainsmok~ pop           
##  5 Someone You Loved - Future Humans Remix    Lewis Capaldi  pop           
##  6 Beautiful People (feat. Khalid) - Jack Wi~ Ed Sheeran     pop           
##  7 Never Really Over - R3HAB Remix            Katy Perry     pop           
##  8 Post Malone (feat. RANI) - GATTÜSO Remix   Sam Feldt      pop           
##  9 Tough Love - Tiësto Remix / Radio Edit     Avicii         pop           
## 10 If I Can't Have You - Gryffin Remix        Shawn Mendes   pop           
## # ... with 32,823 more rows
```

```r
# dplyr can use quoted or unquoted names:
select(spotify, track_name, "track_album_name")
```

```
## # A tibble: 32,833 x 2
##    track_name                          track_album_name                    
##    <chr>                               <chr>                               
##  1 I Don't Care (with Justin Bieber) ~ I Don't Care (with Justin Bieber) [~
##  2 Memories - Dillon Francis Remix     Memories (Dillon Francis Remix)     
##  3 All the Time - Don Diablo Remix     All the Time (Don Diablo Remix)     
##  4 Call You Mine - Keanu Silva Remix   Call You Mine - The Remixes         
##  5 Someone You Loved - Future Humans ~ Someone You Loved (Future Humans Re~
##  6 Beautiful People (feat. Khalid) - ~ Beautiful People (feat. Khalid) [Ja~
##  7 Never Really Over - R3HAB Remix     Never Really Over (R3HAB Remix)     
##  8 Post Malone (feat. RANI) - GATTÜSO~ Post Malone (feat. RANI) [GATTÜSO R~
##  9 Tough Love - Tiësto Remix / Radio ~ Tough Love (Tiësto Remix)           
## 10 If I Can't Have You - Gryffin Remix If I Can't Have You (Gryffin Remix) 
## # ... with 32,823 more rows
```

```r
# You can also use the numeric index to select, however using the column name 
# will make your code more reproducible:
select(spotify, 2, 10)
```

```
## # A tibble: 32,833 x 2
##    track_name                                            playlist_genre
##    <chr>                                                 <chr>         
##  1 I Don't Care (with Justin Bieber) - Loud Luxury Remix pop           
##  2 Memories - Dillon Francis Remix                       pop           
##  3 All the Time - Don Diablo Remix                       pop           
##  4 Call You Mine - Keanu Silva Remix                     pop           
##  5 Someone You Loved - Future Humans Remix               pop           
##  6 Beautiful People (feat. Khalid) - Jack Wins Remix     pop           
##  7 Never Really Over - R3HAB Remix                       pop           
##  8 Post Malone (feat. RANI) - GATTÜSO Remix              pop           
##  9 Tough Love - Tiësto Remix / Radio Edit                pop           
## 10 If I Can't Have You - Gryffin Remix                   pop           
## # ... with 32,823 more rows
```

```r
# We can also change the name of columns within select()

select(spotify, song = track_name, artist = track_artist)
```

```
## # A tibble: 32,833 x 2
##    song                                                  artist          
##    <chr>                                                 <chr>           
##  1 I Don't Care (with Justin Bieber) - Loud Luxury Remix Ed Sheeran      
##  2 Memories - Dillon Francis Remix                       Maroon 5        
##  3 All the Time - Don Diablo Remix                       Zara Larsson    
##  4 Call You Mine - Keanu Silva Remix                     The Chainsmokers
##  5 Someone You Loved - Future Humans Remix               Lewis Capaldi   
##  6 Beautiful People (feat. Khalid) - Jack Wins Remix     Ed Sheeran      
##  7 Never Really Over - R3HAB Remix                       Katy Perry      
##  8 Post Malone (feat. RANI) - GATTÜSO Remix              Sam Feldt       
##  9 Tough Love - Tiësto Remix / Radio Edit                Avicii          
## 10 If I Can't Have You - Gryffin Remix                   Shawn Mendes    
## # ... with 32,823 more rows
```

Use the filter() to select rows based on specific criteria. Remember to start 
with the object, then the selection criteria with base R notation:


```r
filter(spotify, track_popularity  > 90)
```

```
## # A tibble: 252 x 23
##    track_id track_name track_artist track_popularity track_album_id
##    <chr>    <chr>      <chr>                   <dbl> <chr>         
##  1 6cy3ki6~ RITMO (Ba~ The Black E~               96 6EobpC5SDFy5D~
##  2 7CHi4Dt~ Lose Cont~ MEDUZA                     91 1qSOaTvsCOyFJ~
##  3 2Fxmhks~ bad guy    Billie Eili~               95 0S0KGZnfBGSIs~
##  4 2tnVG71~ Ride It    Regard                     94 4zOhjJfe0dwqs~
##  5 7k4t7uL~ Tusa       KAROL G                    98 7mKevNHhVnZER~
##  6 3ZCTVFB~ everythin~ Billie Eili~               97 4i3rAwPw7Ln2Y~
##  7 41L3O37~ Yummy      Justin Bieb~               95 1SN6N3fNkZk5o~
##  8 2ksOAxt~ China      Anuel AA                   93 1PTTAq0OxggVg~
##  9 0TK2YIl~ Señorita   Shawn Mendes               93 2ZaX1FdZCwchX~
## 10 2b8fOow~ Memories   Maroon 5                   98 3nR9B40hYLKLc~
## # ... with 242 more rows, and 18 more variables: track_album_name <chr>,
## #   track_album_release_date <chr>, playlist_name <chr>,
## #   playlist_id <chr>, playlist_genre <chr>, playlist_subgenre <chr>,
## #   danceability <dbl>, energy <dbl>, key <dbl>, loudness <dbl>,
## #   mode <dbl>, speechiness <dbl>, acousticness <dbl>,
## #   instrumentalness <dbl>, liveness <dbl>, valence <dbl>, tempo <dbl>,
## #   duration_ms <dbl>
```

```r
filter(spotify, track_artist == "Ed Sheeran")
```

```
## # A tibble: 69 x 23
##    track_id track_name track_artist track_popularity track_album_id
##    <chr>    <chr>      <chr>                   <dbl> <chr>         
##  1 6f807x0~ I Don't C~ Ed Sheeran                 66 2oCs0DGTsRO98~
##  2 7fvUMiy~ Beautiful~ Ed Sheeran                 67 2yiy9cd2QktrN~
##  3 3eFJI47~ Cross Me ~ Ed Sheeran                 58 49bXZtlI5kQSq~
##  4 1EJgymg~ South of ~ Ed Sheeran                 66 1imXAvLuowvPY~
##  5 3vQhEd4~ South of ~ Ed Sheeran                 65 05Bru0ZVTxp4o~
##  6 19TOAlT~ South of ~ Ed Sheeran                 69 3BjxjIkTZKUpe~
##  7 1uuUnsW~ Happier -~ Ed Sheeran                 53 5GpwroXObdnET~
##  8 7qiZfU4~ Shape of ~ Ed Sheeran                 86 3T4tUhGYeRNVU~
##  9 70eFcWO~ Beautiful~ Ed Sheeran                 85 3oIFxDIo2fwuk~
## 10 4vUmTMu~ South of ~ Ed Sheeran                 91 3oIFxDIo2fwuk~
## # ... with 59 more rows, and 18 more variables: track_album_name <chr>,
## #   track_album_release_date <chr>, playlist_name <chr>,
## #   playlist_id <chr>, playlist_genre <chr>, playlist_subgenre <chr>,
## #   danceability <dbl>, energy <dbl>, key <dbl>, loudness <dbl>,
## #   mode <dbl>, speechiness <dbl>, acousticness <dbl>,
## #   instrumentalness <dbl>, liveness <dbl>, valence <dbl>, tempo <dbl>,
## #   duration_ms <dbl>
```
…
```r
filter(spotify, playlist_genre == "pop" | playlist_genre == "r&b")
```

```
## # A tibble: 10,938 x 23
##    track_id track_name track_artist track_popularity track_album_id
##    <chr>    <chr>      <chr>                   <dbl> <chr>         
##  1 6f807x0~ I Don't C~ Ed Sheeran                 66 2oCs0DGTsRO98~
##  2 0r7CVbZ~ Memories ~ Maroon 5                   67 63rPSO264uRjW~
##  3 1z1Hg7V~ All the T~ Zara Larsson               70 1HoSmj2eLcsrR~
##  4 75Fpbth~ Call You ~ The Chainsm~               60 1nqYsOef1yKKu~
##  5 1e8PAfc~ Someone Y~ Lewis Capal~               69 7m7vv9wlQ4i0L~
##  6 7fvUMiy~ Beautiful~ Ed Sheeran                 67 2yiy9cd2QktrN~
##  7 2OAylPU~ Never Rea~ Katy Perry                 62 7INHYSeusaFly~
##  8 6b1RNvA~ Post Malo~ Sam Feldt                  69 6703SRPsLkS4b~
##  9 7bF6tCO~ Tough Lov~ Avicii                     68 7CvAfGvq4RlIw~
## 10 1IXGILk~ If I Can'~ Shawn Mendes               67 4QxzbfSsVryEQ~
## # ... with 10,928 more rows, and 18 more variables:
## #   track_album_name <chr>, track_album_release_date <chr>,
## #   playlist_name <chr>, playlist_id <chr>, playlist_genre <chr>,
## #   playlist_subgenre <chr>, danceability <dbl>, energy <dbl>, key <dbl>,
## #   loudness <dbl>, mode <dbl>, speechiness <dbl>, acousticness <dbl>,
## #   instrumentalness <dbl>, liveness <dbl>, valence <dbl>, tempo <dbl>,
## #   duration_ms <dbl>
```

```r
filter(spotify, track_artist %in% c("Billie Eilish", "Sam Smith", "Lady Gaga"))
```

```
## # A tibble: 93 x 23
##    track_id track_name track_artist track_popularity track_album_id
##    <chr>    <chr>      <chr>                   <dbl> <chr>         
##  1 0GfS3y8~ Dancing W~ Sam Smith                  69 2LDzwN4iZ4qbS~
##  2 3yNZ5r3~ bad guy (~ Billie Eili~               83 6lMlX68jJrx67~
##  3 0WfKDYe~ Poker Face Lady Gaga                  69 2FBA8NCSuQNi8~
##  4 2Fxmhks~ bad guy    Billie Eili~               95 0S0KGZnfBGSIs~
##  5 6Qs4SXO~ Dancing W~ Sam Smith                  87 1V9oE8bVilClr~
##  6 3ZCTVFB~ everythin~ Billie Eili~               97 4i3rAwPw7Ln2Y~
##  7 29MOOOm~ I Feel Lo~ Sam Smith                  78 2DmVNmERvg6j9~
##  8 6b2RcmU~ How Do Yo~ Sam Smith                  91 7baaCf70tVcUB~
##  9 2Fxmhks~ bad guy    Billie Eili~               95 0S0KGZnfBGSIs~
## 10 3ZCTVFB~ everythin~ Billie Eili~               97 4i3rAwPw7Ln2Y~
## # ... with 83 more rows, and 18 more variables: track_album_name <chr>,
## #   track_album_release_date <chr>, playlist_name <chr>,
## #   playlist_id <chr>, playlist_genre <chr>, playlist_subgenre <chr>,
## #   danceability <dbl>, energy <dbl>, key <dbl>, loudness <dbl>,
## #   mode <dbl>, speechiness <dbl>, acousticness <dbl>,
## #   instrumentalness <dbl>, liveness <dbl>, valence <dbl>, tempo <dbl>,
## #   duration_ms <dbl>
```
…
```r
select(spotify, track_name, track_artist, track_popularity) %>% 
  filter(track_popularity > 95)
```

```
## # A tibble: 71 x 3
##    track_name                track_artist        track_popularity
##    <chr>                     <chr>                          <dbl>
##  1 RITMO (Bad Boys For Life) The Black Eyed Peas               96
##  2 Tusa                      KAROL G                           98
##  3 everything i wanted       Billie Eilish                     97
##  4 Memories                  Maroon 5                          98
##  5 Blinding Lights           The Weeknd                        98
##  6 Memories                  Maroon 5                          98
##  7 Circles                   Post Malone                       98
##  8 Don't Start Now           Dua Lipa                          97
##  9 RITMO (Bad Boys For Life) The Black Eyed Peas               96
## 10 everything i wanted       Billie Eilish                     97
## # ... with 61 more rows
```

Note that in the filter() step we did not putting in the put the 'spotify' 
object in, it was provided by the pipe. Another way to do this would be to 
start by piping the data frame object:


```r
spotify %>% 
  select(track_name, track_artist, track_popularity) %>% 
  filter(track_popularity > 95)
```

```
## # A tibble: 71 x 3
##    track_name                track_artist        track_popularity
##    <chr>                     <chr>                          <dbl>
##  1 RITMO (Bad Boys For Life) The Black Eyed Peas               96
##  2 Tusa                      KAROL G                           98
##  3 everything i wanted       Billie Eilish                     97
##  4 Memories                  Maroon 5                          98
##  5 Blinding Lights           The Weeknd                        98
##  6 Memories                  Maroon 5                          98
##  7 Circles                   Post Malone                       98
##  8 Don't Start Now           Dua Lipa                          97
##  9 RITMO (Bad Boys For Life) The Black Eyed Peas               96
## 10 everything i wanted       Billie Eilish                     97
## # ... with 61 more rows
```
…
The mutate() function is used to create new columns. For example, we can 
create a new column for the song duration in seconds:


```r
spotify %>% 
  select(track_name, duration_ms) %>% 
  mutate(duration_s = duration_ms / 1000)
```

```
## # A tibble: 32,833 x 3
##    track_name                                        duration_ms duration_s
##    <chr>                                                   <dbl>      <dbl>
##  1 I Don't Care (with Justin Bieber) - Loud Luxury ~      194754       195.
##  2 Memories - Dillon Francis Remix                        162600       163.
##  3 All the Time - Don Diablo Remix                        176616       177.
##  4 Call You Mine - Keanu Silva Remix                      169093       169.
##  5 Someone You Loved - Future Humans Remix                189052       189.
##  6 Beautiful People (feat. Khalid) - Jack Wins Remix      163049       163.
##  7 Never Really Over - R3HAB Remix                        187675       188.
##  8 Post Malone (feat. RANI) - GATTÜSO Remix               207619       208.
##  9 Tough Love - Tiësto Remix / Radio Edit                 193187       193.
## 10 If I Can't Have You - Gryffin Remix                    253040       253.
## # ... with 32,823 more rows
```
…
```
## Error: object 'duration_s' not found
```

```r
# But this does:
spotify %>% 
  select(track_name, duration_ms) %>% 
  mutate(duration_s = duration_ms / 1000,
         duration_min = duration_s / 60)
```

```
## # A tibble: 32,833 x 4
##    track_name                           duration_ms duration_s duration_min
##    <chr>                                      <dbl>      <dbl>        <dbl>
##  1 I Don't Care (with Justin Bieber) -~      194754       195.         3.25
##  2 Memories - Dillon Francis Remix           162600       163.         2.71
##  3 All the Time - Don Diablo Remix           176616       177.         2.94
##  4 Call You Mine - Keanu Silva Remix         169093       169.         2.82
##  5 Someone You Loved - Future Humans R~      189052       189.         3.15
##  6 Beautiful People (feat. Khalid) - J~      163049       163.         2.72
##  7 Never Really Over - R3HAB Remix           187675       188.         3.13
##  8 Post Malone (feat. RANI) - GATTÜSO ~      207619       208.         3.46
##  9 Tough Love - Tiësto Remix / Radio E~      193187       193.         3.22
## 10 If I Can't Have You - Gryffin Remix       253040       253.         4.22
## # ... with 32,823 more rows
```
…
```
## Error: object 'duration_ms' not found
```

```r
# If we don't want the old column we need another select():
spotify %>% 
  select(track_name, duration_ms) %>% 
  mutate(duration_s = duration_ms / 1000) %>% 
  select(-duration_ms)  
```

```
## # A tibble: 32,833 x 2
##    track_name                                            duration_s
##    <chr>                                                      <dbl>
##  1 I Don't Care (with Justin Bieber) - Loud Luxury Remix       195.
##  2 Memories - Dillon Francis Remix                             163.
##  3 All the Time - Don Diablo Remix                             177.
##  4 Call You Mine - Keanu Silva Remix                           169.
##  5 Someone You Loved - Future Humans Remix                     189.
##  6 Beautiful People (feat. Khalid) - Jack Wins Remix           163.
##  7 Never Really Over - R3HAB Remix                             188.
##  8 Post Malone (feat. RANI) - GATTÜSO Remix                    208.
##  9 Tough Love - Tiësto Remix / Radio Edit                      193.
## 10 If I Can't Have You - Gryffin Remix                         253.
## # ... with 32,823 more rows
```
…
```
## Warning: Expected 3 pieces. Missing pieces filled with `NA` in 1886 rows
## [152, 750, 751, 752, 754, 756, 760, 766, 769, 780, 783, 786, 787, 788, 789,
## 790, 794, 799, 805, 806, ...].
```

```
## # A tibble: 32,833 x 4
##    track_name                                            year  month day  
##    <chr>                                                 <chr> <chr> <chr>
##  1 I Don't Care (with Justin Bieber) - Loud Luxury Remix 2019  06    14   
##  2 Memories - Dillon Francis Remix                       2019  12    13   
##  3 All the Time - Don Diablo Remix                       2019  07    05   
##  4 Call You Mine - Keanu Silva Remix                     2019  07    19   
##  5 Someone You Loved - Future Humans Remix               2019  03    05   
##  6 Beautiful People (feat. Khalid) - Jack Wins Remix     2019  07    11   
##  7 Never Really Over - R3HAB Remix                       2019  07    26   
##  8 Post Malone (feat. RANI) - GATTÜSO Remix              2019  08    29   
##  9 Tough Love - Tiësto Remix / Radio Edit                2019  06    14   
## 10 If I Can't Have You - Gryffin Remix                   2019  06    20   
## # ... with 32,823 more rows
```
…
